Data Pre-processing I (Continuous and Categorical Data)
…
Finally, we can apply this recipe to our training and test datasets to obtain processed variables accordingly to use in modeling later.

baked_recidivism <- bake(prepare, new_data = recidivism)

baked_recidivism

# A tibble: 18,111 x 167
   Recidivism_Arrest_Year2    ID na_ind_Prison_O~ na_ind_Supervis~ na_ind_Gang_Aff~
                     <int> <int>            <int>            <int>            <int>
 1                       0     1                0                0                0
 2                       0     2                0                0                0
 3                       1     3                0                0                0
 4                       0     4                0                0                0
 5                       0     6                0                0                0
 6                       0     7                1                0                0
 7                       0     8                0                0                0
 8                       1    11                0                0                0
 9                       0    13                0                0                0
10                       0    15                0                0                0
# ... with 18,101 more rows, and 162 more variables:
#   na_ind_Supervision_Risk_Score_First <int>,
#   na_ind_Avg_Days_per_DrugTest <int>, na_ind_Jobs_Per_Year <int>,
#   na_ind_DrugTests_THC_Positive <int>,
#   na_ind_DrugTests_Cocaine_Positive <int>,
#   na_ind_DrugTests_Meth_Positive <int>,
#   na_ind_DrugTests_Other_Positive <int>, ...
…
